\relax 
\providecommand\hyper@newdestlabel[2]{}
\@writefile{toc}{\contentsline {section}{\numberline {3.1}Shift encryption}{14}{section.3.1}}
\@writefile{toc}{\contentsline {section}{\numberline {3.2}Cifrari a sostituzione monoalfabetici}{14}{section.3.2}}
\@writefile{toc}{\contentsline {section}{\numberline {3.3}Cifrari a blocchi}{14}{section.3.3}}
\@writefile{toc}{\contentsline {subsection}{\numberline {3.3.1}Cifrario di Hill}{14}{subsection.3.3.1}}
\@writefile{toc}{\contentsline {section}{\numberline {3.4}Proposizione (Invertibilita')}{15}{section.3.4}}
\@writefile{toc}{\contentsline {section}{\numberline {3.5}Cifrari polialfabetici}{15}{section.3.5}}
\@writefile{toc}{\contentsline {subsection}{\numberline {3.5.1}Cifrario di Vigenere'}{15}{subsection.3.5.1}}
\@writefile{lof}{\contentsline {figure}{\numberline {3.1}{\ignorespaces Esempio di Vigenere}}{16}{figure.3.1}}
\newlabel{fig:vigenereexample}{{3.1}{16}{Esempio di Vigenere}{figure.3.1}{}}
\@writefile{toc}{\contentsline {subsection}{\numberline {3.5.2}Attacco al cifrario di Vigenere'}{16}{subsection.3.5.2}}
\@writefile{toc}{\contentsline {subsubsection}{Test di Kasiski}{16}{section*.2}}
\@writefile{toc}{\contentsline {subsubsection}{Indici di coincidenza}{16}{section*.3}}
\@writefile{toc}{\contentsline {subsubsection}{Determinazione della chiave}{17}{section*.4}}
\@setckpt{ClassicCypherTechniques}{
\setcounter{page}{18}
\setcounter{equation}{0}
\setcounter{enumi}{3}
\setcounter{enumii}{0}
\setcounter{enumiii}{0}
\setcounter{enumiv}{0}
\setcounter{footnote}{0}
\setcounter{mpfootnote}{0}
\setcounter{part}{0}
\setcounter{chapter}{3}
\setcounter{section}{5}
\setcounter{subsection}{2}
\setcounter{subsubsection}{0}
\setcounter{paragraph}{0}
\setcounter{subparagraph}{0}
\setcounter{figure}{1}
\setcounter{table}{0}
\setcounter{parentequation}{0}
\setcounter{float@type}{4}
\setcounter{Item}{3}
\setcounter{Hfootnote}{0}
\setcounter{bookmark@seq@number}{18}
\setcounter{section@level}{3}
}
