\relax 
\providecommand\hyper@newdestlabel[2]{}
\@writefile{toc}{\contentsline {section}{\numberline {6.1}Link encryption vs End-to-End encryption}{28}{section.6.1}}
\@writefile{toc}{\contentsline {section}{\numberline {6.2}Pro e contro di Link encryption e End-to-End encryption}{28}{section.6.2}}
\@writefile{toc}{\contentsline {section}{\numberline {6.3}Distribuzione della chiave segreta tramite Key Distribution Center (KDC)}{28}{section.6.3}}
\@writefile{toc}{\contentsline {section}{\numberline {6.4}Durata della chiave di sessione}{29}{section.6.4}}
\@setckpt{handlingsharedkey}{
\setcounter{page}{30}
\setcounter{equation}{0}
\setcounter{enumi}{5}
\setcounter{enumii}{0}
\setcounter{enumiii}{0}
\setcounter{enumiv}{0}
\setcounter{footnote}{0}
\setcounter{mpfootnote}{0}
\setcounter{part}{0}
\setcounter{chapter}{6}
\setcounter{section}{4}
\setcounter{subsection}{0}
\setcounter{subsubsection}{0}
\setcounter{paragraph}{0}
\setcounter{subparagraph}{0}
\setcounter{figure}{0}
\setcounter{table}{0}
\setcounter{parentequation}{0}
\setcounter{float@type}{4}
\setcounter{Item}{14}
\setcounter{Hfootnote}{0}
\setcounter{bookmark@seq@number}{37}
\setcounter{section@level}{1}
}
