\relax 
\providecommand\hyper@newdestlabel[2]{}
\providecommand\HyperFirstAtBeginDocument{\AtBeginDocument}
\HyperFirstAtBeginDocument{\ifx\hyper@anchor\@undefined
\global\let\oldcontentsline\contentsline
\gdef\contentsline#1#2#3#4{\oldcontentsline{#1}{#2}{#3}}
\global\let\oldnewlabel\newlabel
\gdef\newlabel#1#2{\newlabelxx{#1}#2}
\gdef\newlabelxx#1#2#3#4#5#6{\oldnewlabel{#1}{{#2}{#3}}}
\AtEndDocument{\ifx\hyper@anchor\@undefined
\let\contentsline\oldcontentsline
\let\newlabel\oldnewlabel
\fi}
\fi}
\global\let\hyper@last\relax 
\gdef\HyperFirstAtBeginDocument#1{#1}
\providecommand\HyField@AuxAddToFields[1]{}
\providecommand\HyField@AuxAddToCoFields[2]{}
\@writefile{toc}{\contentsline {chapter}{\numberline {1}Introduction to security}{7}{chapter.1}}
\@writefile{lof}{\addvspace {10\p@ }}
\@writefile{lot}{\addvspace {10\p@ }}
\@input{SecurityIntroduction.aux}
\@writefile{toc}{\contentsline {chapter}{\numberline {2}Shared Key}{9}{chapter.2}}
\@writefile{lof}{\addvspace {10\p@ }}
\@writefile{lot}{\addvspace {10\p@ }}
\@input{SharedKey.aux}
\@writefile{toc}{\contentsline {chapter}{\numberline {3}Classic cypher techniques}{13}{chapter.3}}
\@writefile{lof}{\addvspace {10\p@ }}
\@writefile{lot}{\addvspace {10\p@ }}
\@input{ClassicCypherTechniques.aux}
\@writefile{toc}{\contentsline {chapter}{\numberline {4}Perfect Secrecy e One-Time Pad}{19}{chapter.4}}
\@writefile{lof}{\addvspace {10\p@ }}
\@writefile{lot}{\addvspace {10\p@ }}
\@input{perfectsecrecy_otp.aux}
\@writefile{toc}{\contentsline {chapter}{\numberline {5}SPN E cifrari di feistel}{23}{chapter.5}}
\@writefile{lof}{\addvspace {10\p@ }}
\@writefile{lot}{\addvspace {10\p@ }}
\@input{spnfeister.aux}
\@writefile{toc}{\contentsline {chapter}{\numberline {6}Gestione della Chiave Condivisa}{27}{chapter.6}}
\@writefile{lof}{\addvspace {10\p@ }}
\@writefile{lot}{\addvspace {10\p@ }}
\@input{handlingsharedkey.aux}
\@writefile{toc}{\contentsline {chapter}{\numberline {7}Chiave pubblica}{31}{chapter.7}}
\@writefile{lof}{\addvspace {10\p@ }}
\@writefile{lot}{\addvspace {10\p@ }}
\@input{publickey.aux}
\@writefile{toc}{\contentsline {chapter}{\numberline {8}Aritmetica modulare}{35}{chapter.8}}
\@writefile{lof}{\addvspace {10\p@ }}
\@writefile{lot}{\addvspace {10\p@ }}
\@input{armod.aux}
\@writefile{toc}{\contentsline {chapter}{\numberline {9}RSA}{45}{chapter.9}}
\@writefile{lof}{\addvspace {10\p@ }}
\@writefile{lot}{\addvspace {10\p@ }}
\@input{rsa.aux}
\@writefile{toc}{\contentsline {chapter}{\numberline {10}El Gamal}{49}{chapter.10}}
\@writefile{lof}{\addvspace {10\p@ }}
\@writefile{lot}{\addvspace {10\p@ }}
\@input{elgamal.aux}
\@writefile{toc}{\contentsline {chapter}{\numberline {11}Funzioni di autenticazione}{53}{chapter.11}}
\@writefile{lof}{\addvspace {10\p@ }}
\@writefile{lot}{\addvspace {10\p@ }}
\@input{authfuncs.aux}
\@writefile{toc}{\contentsline {chapter}{\numberline {12}Teoria dell'informazione}{57}{chapter.12}}
\@writefile{lof}{\addvspace {10\p@ }}
\@writefile{lot}{\addvspace {10\p@ }}
\@input{teoriainfo.aux}
\@writefile{toc}{\contentsline {chapter}{\numberline {13}Compressione dati}{61}{chapter.13}}
\@writefile{lof}{\addvspace {10\p@ }}
\@writefile{lot}{\addvspace {10\p@ }}
\@input{compressione.aux}
\@writefile{toc}{\contentsline {chapter}{\numberline {14}Canali e capacita'}{67}{chapter.14}}
\@writefile{lof}{\addvspace {10\p@ }}
\@writefile{lot}{\addvspace {10\p@ }}
\@input{canali_capacita.aux}
\@writefile{toc}{\contentsline {chapter}{\numberline {15}Privacy}{71}{chapter.15}}
\@writefile{lof}{\addvspace {10\p@ }}
\@writefile{lot}{\addvspace {10\p@ }}
\@input{privacy.aux}
\@writefile{toc}{\contentsline {chapter}{\numberline {16}Sicurezza incondizionata}{79}{chapter.16}}
\@writefile{lof}{\addvspace {10\p@ }}
\@writefile{lot}{\addvspace {10\p@ }}
\@input{sicurezza_incondizionata.aux}
