\relax 
\providecommand\hyper@newdestlabel[2]{}
\@writefile{toc}{\contentsline {section}{\numberline {4.1}Cifrari perfetti secondo Shannon}{20}{section.4.1}}
\@writefile{toc}{\contentsline {section}{\numberline {4.2}Proposizione}{20}{section.4.2}}
\@writefile{toc}{\contentsline {subsubsection}{Dimostrazione}{20}{section*.5}}
\@writefile{toc}{\contentsline {section}{\numberline {4.3}One time pad}{20}{section.4.3}}
\@writefile{toc}{\contentsline {subsection}{\numberline {4.3.1}One time pad e' un cifrario perfetto}{20}{subsection.4.3.1}}
\@writefile{toc}{\contentsline {subsubsection}{Dimostrazione}{20}{section*.6}}
\@writefile{toc}{\contentsline {subsection}{\numberline {4.3.2}Sulla praticita' di OTP}{21}{subsection.4.3.2}}
\@setckpt{perfectsecrecy_otp}{
\setcounter{page}{22}
\setcounter{equation}{0}
\setcounter{enumi}{3}
\setcounter{enumii}{0}
\setcounter{enumiii}{0}
\setcounter{enumiv}{0}
\setcounter{footnote}{0}
\setcounter{mpfootnote}{0}
\setcounter{part}{0}
\setcounter{chapter}{4}
\setcounter{section}{3}
\setcounter{subsection}{2}
\setcounter{subsubsection}{0}
\setcounter{paragraph}{0}
\setcounter{subparagraph}{0}
\setcounter{figure}{0}
\setcounter{table}{0}
\setcounter{parentequation}{0}
\setcounter{float@type}{4}
\setcounter{Item}{3}
\setcounter{Hfootnote}{0}
\setcounter{bookmark@seq@number}{24}
\setcounter{section@level}{2}
}
