\relax 
\providecommand\hyper@newdestlabel[2]{}
\@writefile{toc}{\contentsline {section}{\numberline {7.1}Chiave pubblica e privata}{32}{section.7.1}}
\@writefile{toc}{\contentsline {section}{\numberline {7.2}Proprieta' delle chiavi private e pubbliche}{32}{section.7.2}}
\@writefile{toc}{\contentsline {section}{\numberline {7.3}One way}{32}{section.7.3}}
\@writefile{toc}{\contentsline {subsubsection}{Alcuni esempi di funzioni one way}{32}{section*.8}}
\@writefile{toc}{\contentsline {section}{\numberline {7.4}Chiave pubblica e privata applicata al KDC}{32}{section.7.4}}
\@writefile{toc}{\contentsline {section}{\numberline {7.5}Firma digitale}{33}{section.7.5}}
\@setckpt{publickey}{
\setcounter{page}{34}
\setcounter{equation}{0}
\setcounter{enumi}{4}
\setcounter{enumii}{0}
\setcounter{enumiii}{0}
\setcounter{enumiv}{0}
\setcounter{footnote}{0}
\setcounter{mpfootnote}{0}
\setcounter{part}{0}
\setcounter{chapter}{7}
\setcounter{section}{5}
\setcounter{subsection}{0}
\setcounter{subsubsection}{0}
\setcounter{paragraph}{0}
\setcounter{subparagraph}{0}
\setcounter{figure}{0}
\setcounter{table}{0}
\setcounter{parentequation}{0}
\setcounter{float@type}{4}
\setcounter{Item}{18}
\setcounter{Hfootnote}{0}
\setcounter{bookmark@seq@number}{43}
\setcounter{section@level}{1}
}
