\relax 
\providecommand\hyper@newdestlabel[2]{}
\@writefile{toc}{\contentsline {section}{\numberline {2.1}A formal definition of shared key encryption}{10}{section.2.1}}
\@writefile{toc}{\contentsline {subsection}{\numberline {2.1.1}Proprieties of decryption and encryption functions}{10}{subsection.2.1.1}}
\@writefile{toc}{\contentsline {section}{\numberline {2.2}Cryptanalysis}{10}{section.2.2}}
\@writefile{toc}{\contentsline {section}{\numberline {2.3}Power of the attacker}{11}{section.2.3}}
\@setckpt{SharedKey}{
\setcounter{page}{12}
\setcounter{equation}{0}
\setcounter{enumi}{3}
\setcounter{enumii}{0}
\setcounter{enumiii}{0}
\setcounter{enumiv}{0}
\setcounter{footnote}{0}
\setcounter{mpfootnote}{0}
\setcounter{part}{0}
\setcounter{chapter}{2}
\setcounter{section}{3}
\setcounter{subsection}{0}
\setcounter{subsubsection}{0}
\setcounter{paragraph}{0}
\setcounter{subparagraph}{0}
\setcounter{figure}{0}
\setcounter{table}{0}
\setcounter{parentequation}{0}
\setcounter{float@type}{4}
\setcounter{Item}{3}
\setcounter{Hfootnote}{0}
\setcounter{bookmark@seq@number}{9}
\setcounter{section@level}{1}
}
