\relax 
\providecommand\hyper@newdestlabel[2]{}
\@writefile{toc}{\contentsline {section}{\numberline {5.1}Reti di Sostituzione-Permutazione}{24}{section.5.1}}
\@writefile{toc}{\contentsline {subsection}{\numberline {5.1.1}Diffusione}{24}{subsection.5.1.1}}
\@writefile{toc}{\contentsline {subsection}{\numberline {5.1.2}Confusione}{24}{subsection.5.1.2}}
\@writefile{toc}{\contentsline {section}{\numberline {5.2}Cifrari di Feistel}{24}{section.5.2}}
\@writefile{toc}{\contentsline {subsection}{\numberline {5.2.1}Encryption}{24}{subsection.5.2.1}}
\@writefile{lof}{\contentsline {figure}{\numberline {5.1}{\ignorespaces Raffigurazione del cifrario di Feistel}}{25}{figure.5.1}}
\newlabel{fig:feistel}{{5.1}{25}{Raffigurazione del cifrario di Feistel}{figure.5.1}{}}
\@writefile{toc}{\contentsline {subsection}{\numberline {5.2.2}Decryption}{25}{subsection.5.2.2}}
\@writefile{toc}{\contentsline {subsection}{\numberline {5.2.3}Parametri fondamentali dei cifrari di Feistel}{26}{subsection.5.2.3}}
\@writefile{lof}{\contentsline {figure}{\numberline {5.2}{\ignorespaces Funzione F per DES: prima c'e' una fase di espansione e poi viene sommato alla chiave per poi dividere i bit in blocchi da 6 per poi passarli in delle sostitution box che sostituiscono i 6 bit con 4 bit}}{26}{figure.5.2}}
\newlabel{fig:desf}{{5.2}{26}{Funzione F per DES: prima c'e' una fase di espansione e poi viene sommato alla chiave per poi dividere i bit in blocchi da 6 per poi passarli in delle sostitution box che sostituiscono i 6 bit con 4 bit}{figure.5.2}{}}
\@writefile{toc}{\contentsline {subsubsection}{Criteri per le S-box}{26}{section*.7}}
\@setckpt{spnfeister}{
\setcounter{page}{27}
\setcounter{equation}{0}
\setcounter{enumi}{6}
\setcounter{enumii}{0}
\setcounter{enumiii}{0}
\setcounter{enumiv}{0}
\setcounter{footnote}{0}
\setcounter{mpfootnote}{0}
\setcounter{part}{0}
\setcounter{chapter}{5}
\setcounter{section}{2}
\setcounter{subsection}{3}
\setcounter{subsubsection}{0}
\setcounter{paragraph}{0}
\setcounter{subparagraph}{0}
\setcounter{figure}{2}
\setcounter{table}{0}
\setcounter{parentequation}{0}
\setcounter{float@type}{4}
\setcounter{Item}{9}
\setcounter{Hfootnote}{0}
\setcounter{bookmark@seq@number}{32}
\setcounter{section@level}{3}
}
